20 20
S.#.OOOOOOOOOOOO....
.O#O.....#.....#O...
..O#.....#.....#O...
...##########..#O...
...#...........#O...
##.....#########O...
.......#.......O....
########......O.....
.............O......
.....OOOOOOOO.......
....O###############
....O#.....#..#....G
....O#...O#...#....O
....O#..O#O...#....O
....O#.O.#.O..#....O
....O#O###..O.#...O.
....O#O..####O#..O..
....O#O..#...O#.O...
.....O...#...O#O....
.........#....O.....